<?xml version="1.0" encoding="UTF-8" standalone="no"?>
<svg
   xmlns:dc="http://purl.org/dc/elements/1.1/"
   xmlns:cc="http://creativecommons.org/ns#"
   xmlns:rdf="http://www.w3.org/1999/02/22-rdf-syntax-ns#"
   xmlns:svg="http://www.w3.org/2000/svg"
   xmlns="http://www.w3.org/2000/svg"
   xmlns:sodipodi="http://sodipodi.sourceforge.net/DTD/sodipodi-0.dtd"
   xmlns:inkscape="http://www.inkscape.org/namespaces/inkscape"
   height="64pt"
   version="1.1"
   viewBox="0 0 64 64"
   width="64pt"
   id="svg19"
   sodipodi:docname="torLogo-invert.svg"
   inkscape:version="0.92.5 (2060ec1f9f, 2020-04-08)"
   inkscape:export-filename="/home/mohsen/Documents/traqtor-logo-poster/torLogo_invert.png"
   inkscape:export-xdpi="72"
   inkscape:export-ydpi="72">
  <sodipodi:namedview
     pagecolor="#ffffff"
     bordercolor="#666666"
     borderopacity="1"
     objecttolerance="10"
     gridtolerance="10"
     guidetolerance="10"
     inkscape:pageopacity="0"
     inkscape:pageshadow="2"
     inkscape:window-width="1920"
     inkscape:window-height="1022"
     id="namedview21"
     showgrid="false"
     inkscape:zoom="2.765625"
     inkscape:cx="-2.2137118"
     inkscape:cy="32.854013"
     inkscape:window-x="0"
     inkscape:window-y="28"
     inkscape:window-maximized="1"
     inkscape:current-layer="svg19" />
  <metadata
     id="metadata25">
    <rdf:RDF>
      <cc:Work
         rdf:about="">
        <dc:format>image/svg+xml</dc:format>
        <dc:type
           rdf:resource="http://purl.org/dc/dcmitype/StillImage" />
        <dc:title />
      </cc:Work>
    </rdf:RDF>
  </metadata>
  <defs
     id="defs23" />
  <rect
     style="opacity:1;fill:#e91e63;fill-opacity:1;stroke:none;stroke-width:0.75628227;stroke-linecap:square;stroke-linejoin:round;stroke-miterlimit:4;stroke-dasharray:none;stroke-opacity:1"
     id="rect817"
     width="64.536087"
     height="64.536087"
     x="-0.26804447"
     y="-0.26804447"
     ry="0.083357431" />
  <path
     inkscape:connector-curvature="0"
     d="M 8.8105563,42.537554 13.81109,29.500719 M 25.292409,45.414931 15.97708,38.196993 m 9.315329,7.217938 6.625445,-17.273154 m 17.102347,1.556381 a 9.1647455,9.1647455 0 0 1 -6.458307,11.237237 9.1647455,9.1647455 0 0 1 -11.237239,-6.458301 9.1647455,9.1647455 0 0 1 6.458308,-11.237237 9.1647455,9.1647455 0 0 1 11.237238,6.458301 z m -0.456216,6.160063 6.625457,-17.273154"
     style="opacity:1;fill:none;stroke:#ebebeb;stroke-width:3.157166;stroke-linecap:round;stroke-linejoin:round;stroke-miterlimit:4;stroke-dasharray:none;stroke-opacity:1"
     id="path954" />
</svg>
